wave.vcd
$date
	Fri Jan 30 14:40:33 2026
$end
$version
	QuestaSim Version 10.6c
$end
$timescale
	1ns
$end

$scope module uvm_root $end
$upscope $end

$scope module top $end
$var reg 1 ! clk $end
$var reg 1 " rst_n $end

$scope module dut $end
$var parameter 32 # INTR_ADDR $end
$var parameter 32 $ CTRL_ADDR $end
$var parameter 32 % IO_ADDR_ADDR $end
$var parameter 32 & MEM_ADDR_ADDR $end
$var parameter 32 ' EXTRA_INFO_ADDR $end
$var parameter 32 ( STATUS_ADDR $end
$var parameter 32 ) TRANSFER_COUNT_ADDR $end
$var parameter 32 * DESCRIPTOR_ADDR $end
$var parameter 32 + ERROR_STATUS_ADDR $end
$var parameter 32 , CONFIG_ADDR $end
$var wire 1 - clk $end
$var wire 1 . rst_n $end
$var wire 1 / wr_en $end
$var wire 1 0 rd_en $end
$var wire 1 1 wdata [31] $end
$var wire 1 2 wdata [30] $end
$var wire 1 3 wdata [29] $end
$var wire 1 4 wdata [28] $end
$var wire 1 5 wdata [27] $end
$var wire 1 6 wdata [26] $end
$var wire 1 7 wdata [25] $end
$var wire 1 8 wdata [24] $end
$var wire 1 9 wdata [23] $end
$var wire 1 : wdata [22] $end
$var wire 1 ; wdata [21] $end
$var wire 1 < wdata [20] $end
$var wire 1 = wdata [19] $end
$var wire 1 > wdata [18] $end
$var wire 1 ? wdata [17] $end
$var wire 1 @ wdata [16] $end
$var wire 1 A wdata [15] $end
$var wire 1 B wdata [14] $end
$var wire 1 C wdata [13] $end
$var wire 1 D wdata [12] $end
$var wire 1 E wdata [11] $end
$var wire 1 F wdata [10] $end
$var wire 1 G wdata [9] $end
$var wire 1 H wdata [8] $end
$var wire 1 I wdata [7] $end
$var wire 1 J wdata [6] $end
$var wire 1 K wdata [5] $end
$var wire 1 L wdata [4] $end
$var wire 1 M wdata [3] $end
$var wire 1 N wdata [2] $end
$var wire 1 O wdata [1] $end
$var wire 1 P wdata [0] $end
$var wire 1 Q addr [31] $end
$var wire 1 R addr [30] $end
$var wire 1 S addr [29] $end
$var wire 1 T addr [28] $end
$var wire 1 U addr [27] $end
$var wire 1 V addr [26] $end
$var wire 1 W addr [25] $end
$var wire 1 X addr [24] $end
$var wire 1 Y addr [23] $end
$var wire 1 Z addr [22] $end
$var wire 1 [ addr [21] $end
$var wire 1 \ addr [20] $end
$var wire 1 ] addr [19] $end
$var wire 1 ^ addr [18] $end
$var wire 1 _ addr [17] $end
$var wire 1 ` addr [16] $end
$var wire 1 a addr [15] $end
$var wire 1 b addr [14] $end
$var wire 1 c addr [13] $end
$var wire 1 d addr [12] $end
$var wire 1 e addr [11] $end
$var wire 1 f addr [10] $end
$var wire 1 g addr [9] $end
$var wire 1 h addr [8] $end
$var wire 1 i addr [7] $end
$var wire 1 j addr [6] $end
$var wire 1 k addr [5] $end
$var wire 1 l addr [4] $end
$var wire 1 m addr [3] $end
$var wire 1 n addr [2] $end
$var wire 1 o addr [1] $end
$var wire 1 p addr [0] $end
$var reg 32 q rdata [31:0] $end
$var reg 16 r intr_status [15:0] $end
$var reg 16 s intr_mask [15:0] $end
$var reg 1 t ctrl_start_dma $end
$var reg 15 u ctrl_w_count [14:0] $end
$var reg 1 v ctrl_io_mem $end
$var reg 32 w io_addr [31:0] $end
$var reg 32 x mem_addr [31:0] $end
$var reg 32 y extra_info [31:0] $end
$var reg 1 z status_busy $end
$var reg 1 { status_done $end
$var reg 1 | status_error $end
$var reg 1 } status_paused $end
$var reg 4 ~ status_current_state [3:0] $end
$var reg 8 !! status_fifo_level [7:0] $end
$var reg 32 "! transfer_count [31:0] $end
$var reg 32 #! descriptor_addr [31:0] $end
$var reg 1 $! error_bus $end
$var reg 1 %! error_timeout $end
$var reg 1 &! error_alignment $end
$var reg 1 '! error_overflow $end
$var reg 1 (! error_underflow $end
$var reg 8 )! error_code [7:0] $end
$var reg 16 *! error_addr_offset [15:0] $end
$var reg 2 +! config_priority [1:0] $end
$var reg 1 ,! config_auto_restart $end
$var reg 1 -! config_interrupt_enable $end
$var reg 2 .! config_burst_size [1:0] $end
$var reg 2 /! config_data_width [1:0] $end
$var reg 1 0! config_descriptor_mode $end
$upscope $end
$upscope $end

$scope begin uvm_pkg $end
$var parameter 32 1! UVM_HDL_MAX_WIDTH $end
$var parameter 32 2! UVM_STREAMBITS $end
$var parameter 32 3! UVM_RADIX $end
$var parameter 32 4! UVM_MACRO_NUMFLAGS $end
$var parameter 32 5! UVM_DEFAULT $end
$var parameter 32 6! UVM_ALL_ON $end
$var parameter 32 7! UVM_FLAGS_ON $end
$var parameter 32 8! UVM_FLAGS_OFF $end
$var parameter 32 9! UVM_COPY $end
$var parameter 32 :! UVM_NOCOPY $end
$var parameter 32 ;! UVM_COMPARE $end
$var parameter 32 <! UVM_NOCOMPARE $end
$var parameter 32 =! UVM_PRINT $end
$var parameter 32 >! UVM_NOPRINT $end
$var parameter 32 ?! UVM_RECORD $end
$var parameter 32 @! UVM_NORECORD $end
$var parameter 32 A! UVM_PACK $end
$var parameter 32 B! UVM_NOPACK $end
$var parameter 32 C! UVM_PHYSICAL $end
$var parameter 32 D! UVM_ABSTRACT $end
$var parameter 32 E! UVM_READONLY $end
$var parameter 32 F! UVM_NODEFPRINT $end
$var parameter 32 G! UVM_MACRO_EXTRAS $end
$var parameter 32 H! UVM_FLAGS $end
$var parameter 32 I! UVM_UNPACK $end
$var parameter 32 J! UVM_CHECK_FIELDS $end
$var parameter 32 K! UVM_END_DATA_EXTRA $end
$var parameter 32 L! UVM_START_FUNCS $end
$var parameter 32 M! UVM_SET $end
$var parameter 32 N! UVM_SETINT $end
$var parameter 32 O! UVM_SETOBJ $end
$var parameter 32 P! UVM_SETSTR $end
$var parameter 32 Q! UVM_END_FUNCS $end
$var parameter 32 R! UVM_STR_CRC_POLYNOMIAL $end
$var parameter 32 S! UVM_STDOUT $end
$var parameter 32 T! UVM_LINE_WIDTH $end
$var parameter 32 U! UVM_NUM_LINES $end
$var parameter 32 V! UVM_SMALL_STRING $end
$var parameter 32 W! UVM_LARGE_STRING $end
$var reg 1 X! uvm_start_uvm_declarations $end
$var integer 32 Y! uvm_global_random_seed $end
$var integer 32 Z! UVM_UNBOUNDED_CONNECTIONS $end

$scope function uvm_hdl_check_path $end
$var integer 32 [! uvm_hdl_check_path $end
$upscope $end

$scope function uvm_hdl_deposit $end
$var integer 32 \! uvm_hdl_deposit $end
$var reg 1024 ]! value [1023:0] $end
$upscope $end

$scope function uvm_hdl_force $end
$var integer 32 ^! uvm_hdl_force $end
$var reg 1024 _! value [1023:0] $end
$upscope $end

$scope task uvm_hdl_force_time $end
$var reg 1024 `! value [1023:0] $end
$var time 64 a! force_time $end
$upscope $end

$scope function uvm_hdl_release_and_read $end
$var integer 32 b! uvm_hdl_release_and_read $end
$var reg 1024 c! value [1023:0] $end
$upscope $end

$scope function uvm_hdl_release $end
$var integer 32 d! uvm_hdl_release $end
$upscope $end

$scope function uvm_hdl_read $end
$var integer 32 e! uvm_hdl_read $end
$var reg 1024 f! value [1023:0] $end
$upscope $end

$scope function uvm_dpi_get_next_arg_c $end
$upscope $end

$scope function uvm_dpi_get_tool_name_c $end
$upscope $end

$scope function uvm_dpi_get_tool_version_c $end
$upscope $end

$scope function uvm_dpi_get_next_arg $end
$upscope $end

$scope function uvm_dpi_get_tool_name $end
$upscope $end

$scope function uvm_dpi_get_tool_version $end
$upscope $end

$scope function uvm_dpi_regcomp $end
$upscope $end

$scope function uvm_dpi_regexec $end
$var integer 32 g! uvm_dpi_regexec $end
$upscope $end

$scope function uvm_dpi_regfree $end
$upscope $end

$scope function uvm_re_match $end
$var integer 32 h! uvm_re_match $end
$upscope $end

$scope function uvm_dump_re_cache $end
$upscope $end

$scope function uvm_glob_to_re $end
$upscope $end

$scope function uvm_revision_string $end
$upscope $end

$scope function uvm_radix_to_string $end
$var integer 32 i! radix $end
$upscope $end

$scope function uvm_instance_scope $end
$var reg 8 j! c [7:0] $end
$var integer 32 k! pos $end
$upscope $end

$scope function uvm_oneway_hash $end
$var integer 32 l! uvm_oneway_hash $end
$var integer 32 m! seed $end
$var reg 1 n! msb $end
$var reg 8 o! current_byte [7:0] $end
$var reg 32 p! crc1 [31:0] $end
$upscope $end

$scope function uvm_create_random_seed $end
$var integer 32 q! uvm_create_random_seed $end
$upscope $end

$scope function uvm_object_value_str $end
$upscope $end

$scope function uvm_leaf_scope $end
$var reg 8 r! scope_separator [7:0] $end
$var reg 8 s! bracket_match [7:0] $end
$var integer 32 t! pos $end
$var integer 32 u! bmatches $end
$upscope $end

$scope function uvm_vector_to_string $end
$var reg 4096 v! value [4095:0] $end
$var integer 32 w! size $end
$var integer 32 x! radix $end
$upscope $end

$scope function uvm_get_array_index_int $end
$var integer 32 y! uvm_get_array_index_int $end
$var reg 1 z! is_wildcard $end
$var integer 32 {! i $end
$upscope $end

$scope function uvm_get_array_index_string $end
$var reg 1 |! is_wildcard $end
$var integer 32 }! i $end
$upscope $end

$scope function uvm_is_array $end
$var reg 1 ~! uvm_is_array $end
$upscope $end

$scope function uvm_has_wildcard $end
$upscope $end

$scope task run_test $end
$upscope $end

$scope function global_stop_request $end
$upscope $end

$scope function set_global_timeout $end
$var time 64 !" timeout $end
$var reg 1 "" overridable $end
$upscope $end

$scope function set_global_stop_timeout $end
$var time 64 #" timeout $end
$upscope $end

$scope function uvm_report_enabled $end
$var reg 1 $" uvm_report_enabled $end
$var integer 32 %" verbosity $end
$var reg 2 &" severity [1:0] $end
$upscope $end

$scope function uvm_report $end
$var reg 2 '" severity [1:0] $end
$var integer 32 (" verbosity $end
$var integer 32 )" line $end
$upscope $end

$scope function uvm_report_info $end
$var integer 32 *" verbosity $end
$var integer 32 +" line $end
$upscope $end

$scope function uvm_report_warning $end
$var integer 32 ," verbosity $end
$var integer 32 -" line $end
$upscope $end

$scope function uvm_report_error $end
$var integer 32 ." verbosity $end
$var integer 32 /" line $end
$upscope $end

$scope function uvm_report_fatal $end
$var integer 32 0" verbosity $end
$var integer 32 1" line $end
$upscope $end

$scope function uvm_string_to_severity $end
$var reg 1 2" uvm_string_to_severity $end
$var reg 2 3" sev [1:0] $end
$upscope $end

$scope function uvm_string_to_action $end
$upscope $end

$scope function set_config_int $end
$var reg 4096 4" value [4095:0] $end
$upscope $end

$scope function set_config_object $end
$var reg 1 5" clone $end
$upscope $end

$scope function set_config_string $end
$upscope $end

$scope function uvm_is_match $end
$var reg 1 6" uvm_is_match $end
$upscope $end

$scope function uvm_string_to_bits $end
$var reg 115200 7" uvm_string_to_bits [115199:0] $end
$upscope $end

$scope function uvm_bits_to_string $end
$var reg 115200 8" str [115199:0] $end
$upscope $end

$scope task uvm_wait_for_nba_region $end
$var integer 32 9" nba $end
$var integer 32 :" next_nba $end
$upscope $end

$scope function uvm_split_string $end
$upscope $end

$scope function uvm_hdl_concat2string $end
$upscope $end
$upscope $end

$scope begin dma_pkg $end
$upscope $end

$scope begin top_sv_unit $end
$upscope $end

$scope begin std $end
$upscope $end

$scope begin questa_uvm_pkg $end
$upscope $end
$enddefinitions $end
#0
$dumpvars
0!
0"
b0 q
b0 r
b0 s
0t
b0 u
0v
b0 w
b0 x
b0 y
0z
0{
0|
0}
b0 ~
b0 !!
b0 "!
b0 #!
0$!
0%!
0&!
0'!
0(!
b0 )!
b0 *!
b0 +!
0,!
0-!
b0 .!
b0 /!
00!
0|!
0~!
02"
b0 3"
bx 7"
bx 8"
bx ]!
bx _!
bx `!
bx c!
bx f!
1X!
0n!
b1110010 o!
b11101011101010010110011101101100 p!
bx v!
0z!
0""
0$"
b0 &"
b0 '"
bx 4"
05"
06"
b10000000000 #
b10000000100 $
b10000001000 %
b10000001100 &
b10000010000 '
b10000010100 (
b10000011000 )
b10000011100 *
b10000100000 +
b10000100100 ,
b10000000000 1!
b1000000000000 2!
b1111000000000000000000000000 3!
b10001 4!
b10101010101 5!
b101010101 6!
b101010101 7!
b0 8!
b1 9!
b10 :!
b100 ;!
b1000 <!
b10000 =!
b100000 >!
b1000000 ?!
b10000000 @!
b100000000 A!
b1000000000 B!
b10000000000000 C!
b100000000000000 D!
b1000000000000000 E!
b10000000000000000 F!
b100000000000000000 G!
b100000000000000001 H!
b100000000000000010 I!
b100000000000000011 J!
b100000000000000100 K!
b100000000000000101 L!
b100000000000000110 M!
b100000000000000110 N!
b100000000000000111 O!
b100000000000001000 P!
b100000000000001000 Q!
b100110000010001110110110110 R!
b1 S!
b1111000 T!
b1111000 U!
b1110111111 V!
b11100000111111111 W!
b0 i!
b0 r!
b0 s!
b0 t!
b0 u!
b0 }!
b0 [!
b0 \!
b0 ^!
b0 b!
b0 d!
b0 e!
b1 g!
b0 h!
b1101001011000001111100000011110 Y!
b101110 j!
b111 k!
b11111100111110010100111000110010 l!
b1101001011000001111100000011110 m!
b10001011110101011000001101101 q!
b0 w!
b0 x!
b0 y!
b0 {!
b111110100 %"
b0 ("
b0 )"
b11001000 *"
b11011001 +"
b0 ,"
b0 -"
b0 ."
b0 /"
b0 0"
b0 1"
b100011 9"
b100011 :"
b11111111111111111111111111111111 Z!
bx a!
bx !"
bx #"
0.
0-
x/
x0
xP
xO
xN
xM
xL
xK
xJ
xI
xH
xG
xF
xE
xD
xC
xB
xA
x@
x?
x>
x=
x<
x;
x:
x9
x8
x7
x6
x5
x4
x3
x2
x1
xp
xo
xn
xm
xl
xk
xj
xi
xh
xg
xf
xe
xd
xc
xb
xa
x`
x_
x^
x]
x\
x[
xZ
xY
xX
xW
xV
xU
xT
xS
xR
xQ
$end
#5
1!
1-
b100100 :"
b100100 9"
1/
00
0P
1O
0N
1M
0L
1K
0J
1I
0H
1G
0F
1E
0D
1C
0B
1A
0@
1?
0>
1=
0<
1;
0:
19
08
17
06
15
04
13
02
11
0p
0o
0n
0m
0l
0k
0j
0i
0h
0g
1f
0e
0d
0c
0b
0a
0`
0_
0^
0]
0\
0[
0Z
0Y
0X
0W
0V
0U
0T
0S
0R
0Q
#10
1"
0!
1.
0-
#15
1!
1-
b1010101010101010 s
#20
0!
0-
#25
1!
1-
b100101 :"
b110010000 %"
b100101100 %"
b111110100 %"
b100101100 %"
b110010000 %"
b11111100111110010100111000110011 q!
b100101 9"
0/
10
0O
0M
0K
0I
0G
0E
0C
0A
0?
0=
0;
09
07
05
03
01
#30
0!
0-
#35
1!
1-
b10101010101010100000000000000000 q
#40
0!
0-
#45
1!
1-
b100110 :"
b100101100 %"
b110010000 %"
b11111100111110010100111000110101 q!
b100110 9"
1/
00
1P
1O
1N
1M
1L
1K
1J
1I
1H
1G
1F
1E
1D
1C
1B
1A
1>
1<
1;
17
14
1n
#50
0!
0-
#55
1!
1-
1t
b111111111111111 u
#60
0!
0-
#65
1!
1-
1z
b1 ~
b100111 :"
b100101100 %"
b111110100 %"
b100101100 %"
b110010000 %"
b11111100111110010100111000111000 q!
b100111 9"
0/
10
0P
0O
0N
0M
0L
0K
0J
0I
0H
0G
0F
0E
0D
0C
0B
0A
0>
0<
0;
07
04
#70
0!
0-
#75
1!
1-
0t
b1111111111111111 q
#80
0!
0-
#85
1!
1-
b1111111111111110 q
b1 "!
b101000 :"
b100101100 %"
b110010000 %"
b11111100111110010100111000111100 q!
b101000 9"
1/
00
1N
1M
1F
1>
1;
14
0n
1m
#90
0!
0-
#95
1!
1-
b10000001001000000010000001100 w
b10 "!
b1 !!
#100
0!
0-
#105
1!
1-
b11 "!
b10 !!
b101001 :"
b100101100 %"
b111110100 %"
b100101100 %"
b110010000 %"
b11111100111110010100111001000001 q!
b101001 9"
0/
10
0N
0M
0F
0>
0;
04
#110
0!
0-
#115
1!
1-
b10000001001000000010000001100 q
b100 "!
b11 !!
#120
0!
0-
#125
1!
1-
b101 "!
b100 !!
b101010 :"
b100101100 %"
b110010000 %"
b11111100111110010100111001000111 q!
b101010 9"
1/
00
1H
1G
1F
1E
1C
1B
1A
1@
1>
1=
1:
19
18
17
15
13
11
1n
#130
0!
0-
#135
1!
1-
b10101011110011011110111100000000 x
b110 "!
b101 !!
#140
0!
0-
#145
1!
1-
b111 "!
b110 !!
b101011 :"
b100101100 %"
b111110100 %"
b100101100 %"
b110010000 %"
b11111100111110010100111001001110 q!
b101011 9"
0/
10
0H
0G
0F
0E
0C
0B
0A
0@
0>
0=
0:
09
08
07
05
03
01
#150
0!
0-
#155
1!
1-
b10101011110011011110111100000000 q
b1000 "!
b111 !!
#160
0!
0-
#165
1!
1-
b1001 "!
b1000 !!
b101100 :"
b100101100 %"
b110010000 %"
b11111100111110010100111001010110 q!
b101100 9"
1/
00
1P
1N
1M
1J
1F
1E
1D
1C
1@
1?
1=
1;
17
15
14
0n
0m
1l
#170
0!
0-
#175
1!
1-
b11010001010110011110001001101 y
b1010 "!
b1001 !!
#180
0!
0-
#185
1!
1-
b1011 "!
b1010 !!
b101101 :"
b100101100 %"
b111110100 %"
b100101100 %"
b110010000 %"
b11111100111110010100111001011111 q!
b101101 9"
0/
10
0P
0N
0M
0J
0F
0E
0D
0C
0@
0?
0=
0;
07
05
04
#190
0!
0-
#195
1!
1-
b11010001010110011110001001101 q
b1100 "!
b1011 !!
#200
0!
0-
#205
1!
1-
b1101 "!
b1100 !!
b101110 :"
b100101100 %"
b110010000 %"
b11111100111110010100111001101001 q!
b101110 9"
1/
00
1P
1@
1>
1=
1:
19
18
17
15
13
11
1n
#210
0!
0-
#215
1!
1-
b1110 "!
b1101 !!
#220
0!
0-
#225
1!
1-
b1111 "!
b1110 !!
b101111 :"
b100101100 %"
b110010000 %"
b11111100111110010100111001110100 q!
b101111 9"
0/
10
0P
0@
0>
0=
0:
09
08
07
05
03
01
#230
0!
0-
#235
1!
1-
b111000010000001 q
b10000 "!
b1111 !!
#240
0!
0-
#245
1!
1-
b10001 "!
b10000 !!
b111100010000001 q
b110000 :"
b100101100 %"
b110010000 %"
b11111100111110010100111010000000 q!
b110000 9"
1/
00
1P
1N
1L
1J
1H
1F
1D
1B
1?
1=
1;
19
17
15
13
11
0n
1m
#250
0!
0-
#255
1!
1-
b10010 "!
b10001 !!
#260
0!
0-
#265
1!
1-
b10011 "!
b10010 !!
b110001 :"
b100101100 %"
b110010000 %"
b11111100111110010100111010001101 q!
b110001 9"
0/
10
0P
0N
0L
0J
0H
0F
0D
0B
0?
0=
0;
09
07
05
03
01
#270
0!
0-
#275
1!
1-
b10011 q
b10100 "!
b10011 !!
#280
0!
0-
#285
1!
1-
b10101 "!
b10100 !!
b10100 q
b110010 :"
b100101100 %"
b110010000 %"
b11111100111110010100111010011011 q!
b110010 9"
1/
00
1O
1N
1L
1K
1I
1G
1F
1D
1C
1A
1@
1>
1;
19
18
16
13
11
1n
#290
0!
0-
#295
1!
1-
b10100101101001011011011010110110 #!
b10110 "!
b10101 !!
#300
0!
0-
#305
1!
1-
b10111 "!
b10110 !!
b110011 :"
b100101100 %"
b111110100 %"
b100101100 %"
b110010000 %"
b11111100111110010100111010101010 q!
b110011 9"
0/
10
0O
0N
0L
0K
0I
0G
0F
0D
0C
0A
0@
0>
0;
09
08
06
03
01
#310
0!
0-
#315
1!
1-
b10100101101001011011011010110110 q
b11000 "!
b10111 !!
#320
0!
0-
#325
1!
1-
b11001 "!
b11000 !!
b110100 :"
b100101100 %"
b110010000 %"
b11111100111110010100111010111010 q!
b110100 9"
1/
00
1P
1N
1M
1J
1I
1H
1G
1E
1C
1A
1>
1<
1;
17
14
0n
0m
0l
1k
#330
0!
0-
#335
1!
1-
b11010 "!
b11001 !!
#340
0!
0-
#345
1!
1-
b11011 "!
b11010 !!
b110101 :"
b100101100 %"
b111110100 %"
b100101100 %"
b110010000 %"
b11111100111110010100111011001011 q!
b110101 9"
0/
10
0P
0N
0M
0J
0I
0H
0G
0E
0C
0A
0>
0<
0;
07
04
#350
0!
0-
#355
1!
1-
b0 q
b11100 "!
b11011 !!
#360
0!
0-
#365
1!
1-
b11101 "!
b11100 !!
b110110 :"
b100101100 %"
b110010000 %"
b11111100111110010100111011011101 q!
b110110 9"
1/
00
1P
1O
1N
1M
1L
1K
1J
1I
1H
1G
1F
1E
1D
1C
1B
1A
1@
1?
1>
1=
1<
1;
1:
19
18
17
16
15
14
13
12
11
1n
#370
0!
0-
#375
1!
1-
b11 +!
1,!
1-!
b11 .!
b11 /!
10!
b11110 "!
b11101 !!
#380
0!
0-
#385
1!
1-
b11111 "!
b11110 !!
b110111 :"
b100101100 %"
b111110100 %"
b100101100 %"
b110010000 %"
b11111100111110010100111011110000 q!
b110111 9"
0/
10
0P
0O
0N
0M
0L
0K
0J
0I
0H
0G
0F
0E
0D
0C
0B
0A
0@
0?
0>
0=
0<
0;
0:
09
08
07
06
05
04
03
02
01
#390
0!
0-
#395
1!
1-
b111111111 q
b100000 "!
b11111 !!
#400
0!
0-
#405
1!
1-
b100001 "!
b100000 !!
b111000 :"
b100101100 %"
b10010100110010001000111111000111 q!
b110010000 %"
b11111100111110010100111100000100 q!
b111000 9"
1/
00
1O
1M
1K
1I
1G
1E
1C
1A
1?
1=
1;
19
17
15
13
11
0n
0k
#410
0!
0-
#415
1!
1-
b100010 "!
b100001 !!
#420
0!
0-
#425
1!
1-
b100011 "!
b100010 !!
b111001 :"
b100101100 %"
b111110100 %"
b100101100 %"
b110010000 %"
b11111100111110010100111100011001 q!
b111001 9"
0/
10
0O
0M
0K
0I
0G
0E
0C
0A
0?
0=
0;
09
07
05
03
01
#430
0!
0-
#435
1!
1-
b10101010101010100000000000000000 q
b100100 "!
b100011 !!
#440
0!
0-
#445
1!
1-
b100101 "!
b100100 !!
b111010 :"
b100101100 %"
b110010000 %"
b11111100111110010100111100101111 q!
b111010 9"
1/
00
1P
1O
1N
1M
1L
1K
1J
1I
1H
1G
1F
1E
1D
1C
1B
1A
1>
1<
1;
17
14
1n
#450
0!
0-
#455
1!
1-
1t
b100110 "!
b100101 !!
#460
0!
0-
#465
1!
1-
b0 "!
b111011 :"
b100101100 %"
b111110100 %"
b100101100 %"
b110010000 %"
b11111100111110010100111101000110 q!
b111011 9"
0/
10
0P
0O
0N
0M
0L
0K
0J
0I
0H
0G
0F
0E
0D
0C
0B
0A
0>
0<
0;
07
04
#470
0!
0-
#475
1!
1-
0t
b1111111111111111 q
#480
0!
0-
#485
1!
1-
b1111111111111110 q
b1 "!
b0 !!
b111100 :"
b100101100 %"
b110010000 %"
b11111100111110010100111101011110 q!
b111100 9"
1/
00
1N
1M
1F
1>
1;
14
0n
1m
#490
0!
0-
#495
1!
1-
b10 "!
b1 !!
#500
0!
0-
#505
1!
1-
b11 "!
b10 !!
b111101 :"
b100101100 %"
b111110100 %"
b100101100 %"
b110010000 %"
b11111100111110010100111101110111 q!
b111101 9"
0/
10
0N
0M
0F
0>
0;
04
#510
0!
0-
#515
1!
1-
b10000001001000000010000001100 q
b100 "!
b11 !!
#520
0!
0-
#525
1!
1-
b101 "!
b100 !!
b111110 :"
b100101100 %"
b110010000 %"
b11111100111110010100111110010001 q!
b111110 9"
1/
00
1H
1G
1F
1E
1C
1B
1A
1@
1>
1=
1:
19
18
17
15
13
11
1n
#530
0!
0-
#535
1!
1-
b110 "!
b101 !!
#540
0!
0-
#545
1!
1-
b111 "!
b110 !!
b111111 :"
b100101100 %"
b111110100 %"
b100101100 %"
b110010000 %"
b11111100111110010100111110101100 q!
b111111 9"
0/
10
0H
0G
0F
0E
0C
0B
0A
0@
0>
0=
0:
09
08
07
05
03
01
#550
0!
0-
#555
1!
1-
b10101011110011011110111100000000 q
b1000 "!
b111 !!
#560
0!
0-
#565
1!
1-
b1001 "!
b1000 !!
b1000000 :"
b100101100 %"
b110010000 %"
b11111100111110010100111111001000 q!
b1000000 9"
1/
00
1P
1N
1M
1J
1F
1E
1D
1C
1@
1?
1=
1;
17
15
14
0n
0m
1l
#570
0!
0-
#575
1!
1-
b1010 "!
b1001 !!
#580
0!
0-
#585
1!
1-
b1011 "!
b1010 !!
b1000001 :"
b100101100 %"
b111110100 %"
b100101100 %"
b110010000 %"
b11111100111110010100111111100101 q!
b1000001 9"
0/
10
0P
0N
0M
0J
0F
0E
0D
0C
0@
0?
0=
0;
07
05
04
#590
0!
0-
#595
1!
1-
b11010001010110011110001001101 q
b1100 "!
b1011 !!
#600
0!
0-
#605
1!
1-
b1101 "!
b1100 !!
b1000010 :"
b100101100 %"
b110010000 %"
b11111100111110010101000000000011 q!
b1000010 9"
1/
00
1P
1@
1>
1=
1:
19
18
17
15
13
11
1n
#610
0!
0-
#615
1!
1-
b1110 "!
b1101 !!
#620
0!
0-
#625
1!
1-
b1111 "!
b1110 !!
b1000011 :"
b100101100 %"
b110010000 %"
b11111100111110010101000000100010 q!
b1000011 9"
0/
10
0P
0@
0>
0=
0:
09
08
07
05
03
01
#630
0!
0-
#635
1!
1-
b111000010000001 q
b10000 "!
b1111 !!
#640
0!
0-
#645
1!
1-
b10001 "!
b10000 !!
b111100010000001 q
b1000100 :"
b100101100 %"
b110010000 %"
b11111100111110010101000001000010 q!
b1000100 9"
1/
00
1P
1N
1L
1J
1H
1F
1D
1B
1?
1=
1;
19
17
15
13
11
0n
1m
#650
0!
0-
#655
1!
1-
b10010 "!
b10001 !!
#660
0!
0-
#665
1!
1-
b10011 "!
b10010 !!
b1000101 :"
b100101100 %"
b110010000 %"
b11111100111110010101000001100011 q!
b1000101 9"
0/
10
0P
0N
0L
0J
0H
0F
0D
0B
0?
0=
0;
09
07
05
03
01
#670
0!
0-
#675
1!
1-
b10011 q
b10100 "!
b10011 !!
#680
0!
0-
#685
1!
1-
b10101 "!
b10100 !!
b10100 q
b1000110 :"
b100101100 %"
b110010000 %"
b11111100111110010101000010000101 q!
b1000110 9"
1/
00
1O
1N
1L
1K
1I
1G
1F
1D
1C
1A
1@
1>
1;
19
18
16
13
11
1n
#690
0!
0-
#695
1!
1-
b10110 "!
b10101 !!
#700
0!
0-
#705
1!
1-
b10111 "!
b10110 !!
b1000111 :"
b100101100 %"
b111110100 %"
b100101100 %"
b110010000 %"
b11111100111110010101000010101000 q!
b1000111 9"
0/
10
0O
0N
0L
0K
0I
0G
0F
0D
0C
0A
0@
0>
0;
09
08
06
03
01
#710
0!
0-
#715
1!
1-
b10100101101001011011011010110110 q
b11000 "!
b10111 !!
#720
0!
0-
#725
1!
1-
b11001 "!
b11000 !!
b1001000 :"
b100101100 %"
b110010000 %"
b11111100111110010101000011001100 q!
b1001000 9"
1/
00
1P
1N
1M
1J
1I
1H
1G
1E
1C
1A
1>
1<
1;
17
14
0n
0m
0l
1k
#730
0!
0-
#735
1!
1-
b11010 "!
b11001 !!
#740
0!
0-
#745
1!
1-
b11011 "!
b11010 !!
b1001001 :"
b100101100 %"
b111110100 %"
b100101100 %"
b110010000 %"
b11111100111110010101000011110001 q!
b1001001 9"
0/
10
0P
0N
0M
0J
0I
0H
0G
0E
0C
0A
0>
0<
0;
07
04
#750
0!
0-
#755
1!
1-
b0 q
b11100 "!
b11011 !!
#760
0!
0-
#765
1!
1-
b11101 "!
b11100 !!
b1001010 :"
b100101100 %"
b110010000 %"
b11111100111110010101000100010111 q!
b1001010 9"
1/
00
1P
1O
1N
1M
1L
1K
1J
1I
1H
1G
1F
1E
1D
1C
1B
1A
1@
1?
1>
1=
1<
1;
1:
19
18
17
16
15
14
13
12
11
1n
#770
0!
0-
#775
1!
1-
b11110 "!
b11101 !!
#780
0!
0-
#785
1!
1-
b11111 "!
b11110 !!
b1001011 :"
b100101100 %"
b111110100 %"
b100101100 %"
b110010000 %"
b11111100111110010101000100111110 q!
b1001011 9"
0/
10
0P
0O
0N
0M
0L
0K
0J
0I
0H
0G
0F
0E
0D
0C
0B
0A
0@
0?
0>
0=
0<
0;
0:
09
08
07
06
05
04
03
02
01
#790
0!
0-
#795
1!
1-
b111111111 q
b100000 "!
b11111 !!
#800
0!
0-
#805
1!
1-
b100001 "!
b100000 !!
b1001100 :"
b100101100 %"
b10010100110010001000111111001001 q!
b110010000 %"
b11111100111110010101000101100110 q!
b1001100 9"
1/
00
1O
1M
1K
1I
1G
1E
1C
1A
1?
1=
1;
19
17
15
13
11
0n
0k
#810
0!
0-
#815
1!
1-
b100010 "!
b100001 !!
#820
0!
0-
#825
1!
1-
b100011 "!
b100010 !!
b1001101 :"
b100101100 %"
b111110100 %"
b100101100 %"
b110010000 %"
b11111100111110010101000110001111 q!
b1001101 9"
0/
10
0O
0M
0K
0I
0G
0E
0C
0A
0?
0=
0;
09
07
05
03
01
#830
0!
0-
#835
1!
1-
b10101010101010100000000000000000 q
b100100 "!
b100011 !!
#840
0!
0-
#845
1!
1-
b100101 "!
b100100 !!
b1001110 :"
b100101100 %"
b110010000 %"
b11111100111110010101000110111001 q!
b1001110 9"
1/
00
1P
1O
1N
1M
1L
1K
1J
1I
1H
1G
1F
1E
1D
1C
1B
1A
1>
1<
1;
17
14
1n
#850
0!
0-
#855
1!
1-
1t
b100110 "!
b100101 !!
#860
0!
0-
#865
1!
1-
b0 "!
b1001111 :"
b100101100 %"
b111110100 %"
b100101100 %"
b110010000 %"
b11111100111110010101000111100100 q!
b1001111 9"
0/
10
0P
0O
0N
0M
0L
0K
0J
0I
0H
0G
0F
0E
0D
0C
0B
0A
0>
0<
0;
07
04
#870
0!
0-
#875
1!
1-
0t
b1111111111111111 q
#880
0!
0-
#885
1!
1-
b1111111111111110 q
b1 "!
b0 !!
b1010000 :"
b100101100 %"
b110010000 %"
b11111100111110010101001000010000 q!
b1010000 9"
1/
00
1N
1M
1F
1>
1;
14
0n
1m
#890
0!
0-
#895
1!
1-
b10 "!
b1 !!
#900
0!
0-
